// Jest Snapshot v1, https://goo.gl/fbAQLP

exports[`Storyshots ActionsMenu Employee Actions Menu 1`] = `
<div
  onClick={[Function]}
>
  <button
    className="button"
    type="button"
  >
    <a
      className="btn-icon"
    >
      <i
        className="icon i-more-1"
      />
    </a>
  </button>
</div>
`;

exports[`Storyshots BreadCrumb Add New Employee Breadcrumb 1`] = `
<div
  className="cell medium-6 small-12"
>
  <nav
    aria-label="You are here:"
    role="navigation"
  >
    <ul
      className="breadcrumbs"
    >
      <li>
        <a
          onClick={[Function]}
        >
          Employees
        </a>
      </li>
      <li>
        <a
          onClick={[Function]}
        >
          View & Manage
        </a>
      </li>
      <li>
        <a>
          Add New
        </a>
      </li>
    </ul>
  </nav>
  <h3
    className="s-title"
  >
    <a
      className="e-button-back"
      href="#"
    >
      <i
        className="icon i-chevron-left"
      />
    </a>
    <span>
      Add a New Employee
    </span>
  </h3>
</div>
`;

exports[`Storyshots BreadCrumb View Employees Breadcrumb 1`] = `
<div
  className="cell medium-6 small-12"
>
  <nav
    aria-label="You are here:"
    role="navigation"
  >
    <ul
      className="breadcrumbs"
    >
      <li>
        <a
          onClick={[Function]}
        >
          Employees
        </a>
      </li>
      <li>
        <a
          onClick={[Function]}
        >
          View & Manage
        </a>
      </li>
    </ul>
  </nav>
  <h3
    className="s-title"
  >
    
    <span>
      View & Manage Employees
    </span>
  </h3>
</div>
`;

exports[`Storyshots BreadCrumbMenu Add New Employee Breadcrumb Menu 1`] = `
<ul
  className="breadcrumbs"
>
  <li>
    <a
      onClick={[Function]}
    >
      Employees
    </a>
  </li>
  <li>
    <a
      onClick={[Function]}
    >
      View & Manage
    </a>
  </li>
  <li>
    <a>
      Add New
    </a>
  </li>
</ul>
`;

exports[`Storyshots BreadCrumbMenu View Employees Breadcrumb Menu 1`] = `
<ul
  className="breadcrumbs"
>
  <li>
    <a
      onClick={[Function]}
    >
      Employees
    </a>
  </li>
  <li>
    <a
      onClick={[Function]}
    >
      View & Manage
    </a>
  </li>
</ul>
`;

exports[`Storyshots Button Actions Menu Button 1`] = `
<button
  className="button"
  type="button"
>
  <a
    className="btn-icon"
  >
    <i
      className="icon i-more-1"
    />
  </a>
</button>
`;

exports[`Storyshots Button Color Button 1`] = `
<button
  className="button button secondary shaddy"
  onClick={[Function]}
  type="button"
>
  Styled Button
</button>
`;

exports[`Storyshots Button Disable Button 1`] = `
<button
  className="button"
  disabled={true}
  onClick={[Function]}
  type="button"
>
  Disabled Button
</button>
`;

exports[`Storyshots Button Icon Button 1`] = `
<button
  className="button button primary shaddy"
  onClick={[Function]}
  title="Add Employee"
  type="button"
>
  <i
    aria-hidden="true"
    className="icon i-plus margin-right"
  />
  Add New Employee
</button>
`;

exports[`Storyshots Button Text 1`] = `
<button
  className="button"
  onClick={[Function]}
  type="button"
>
  Hello World!
</button>
`;

exports[`Storyshots Button with emoji 1`] = `
<button
  className="button"
  onClick={[Function]}
  type="button"
>
  <span
    aria-label="so cool"
    role="img"
  >
    😀 😎 👍 💯
  </span>
</button>
`;
